An error occurred while executing the command definition. See the inner exception for details.
Invalid object name 'Sistemas.ParametrosSistemas'.
An error occurred while executing the command definition. See the inner exception for details.
Invalid object name 'SotSchema.ConfiguracionesPuntosLealtad'.
An error occurred while executing the command definition. See the inner exception for details.
Invalid object name 'Sistemas.ParametrosSistemas'.
An error occurred while executing the command definition. See the inner exception for details.
Invalid object name 'SotSchema.ConfiguracionesPuntosLealtad'.
An error occurred while executing the command definition. See the inner exception for details.
Invalid object name 'Sistemas.ParametrosSistemas'.
An error occurred while executing the command definition. See the inner exception for details.
Invalid object name 'SotSchema.ConfiguracionesPuntosLealtad'.
An error occurred while executing the command definition. See the inner exception for details.
Invalid object name 'Sistemas.ParametrosSistemas'.
An error occurred while executing the command definition. See the inner exception for details.
Invalid object name 'SotSchema.ConfiguracionesPuntosLealtad'.
An error occurred while executing the command definition. See the inner exception for details.
Invalid object name 'Sistemas.ParametrosSistemas'.
An error occurred while executing the command definition. See the inner exception for details.
Invalid object name 'SotSchema.ConfiguracionesPuntosLealtad'.
An error occurred while executing the command definition. See the inner exception for details.
Invalid object name 'Sistemas.ParametrosSistemas'.
An error occurred while executing the command definition. See the inner exception for details.
Invalid object name 'SotSchema.ConfiguracionesPuntosLealtad'.
An error occurred while executing the command definition. See the inner exception for details.
Invalid object name 'Sistemas.ParametrosSistemas'.
An error occurred while executing the command definition. See the inner exception for details.
Invalid object name 'SotSchema.ConfiguracionesPuntosLealtad'.
La columna 'Esrenovacion' no pertenece a la tabla Table.
An error occurred while executing the command definition. See the inner exception for details.
Invalid object name 'Sistemas.ParametrosSistemas'.
An error occurred while executing the command definition. See the inner exception for details.
Invalid object name 'SotSchema.ConfiguracionesPuntosLealtad'.
An error occurred while executing the command definition. See the inner exception for details.
Invalid object name 'Sistemas.ParametrosSistemas'.
An error occurred while executing the command definition. See the inner exception for details.
Invalid object name 'SotSchema.ConfiguracionesPuntosLealtad'.
An error occurred while executing the command definition. See the inner exception for details.
Invalid object name 'Sistemas.ParametrosSistemas'.
An error occurred while executing the command definition. See the inner exception for details.
Invalid object name 'SotSchema.ConfiguracionesPuntosLealtad'.
An error occurred while executing the command definition. See the inner exception for details.
Invalid object name 'Sistemas.ParametrosSistemas'.
An error occurred while executing the command definition. See the inner exception for details.
Invalid object name 'SotSchema.ConfiguracionesPuntosLealtad'.
An error occurred while executing the command definition. See the inner exception for details.
Invalid object name 'Sistemas.ParametrosSistemas'.
An error occurred while executing the command definition. See the inner exception for details.
Invalid object name 'SotSchema.ConfiguracionesPuntosLealtad'.
