URI no válido: URI está vacío.
No se puede encontrar una parte de la ruta de acceso 'C:\Sigeho\Instaladores SOT\Logo_VMotelBoutique80px.png'.
No se puede encontrar una parte de la ruta de acceso 'C:\Sigeho\Instaladores SOT\Logo_VMotelBoutique80px.png'.
No se puede encontrar una parte de la ruta de acceso 'C:\Sigeho\Instaladores SOT\Logo_VMotelBoutique80px.png'.
No se puede encontrar una parte de la ruta de acceso 'C:\Sigeho\Instaladores SOT\Logo_VMotelBoutique80px.png'.
No se puede encontrar una parte de la ruta de acceso 'C:\Sigeho\Instaladores SOT\Logo_VMotelBoutique80px.png'.
No se puede encontrar una parte de la ruta de acceso 'C:\Sigeho\Instaladores SOT\Logo_VMotelBoutique80px.png'.
