{
    "desktop": [
        "Se reactivó la ventana para consultar pagos pendientes que solamente tiene el filtro de estatus.",
        "Se habilitó la opción de poder cambiar el tipo de pago de una cuenta pagada, siempre y cuando el corte esté en curso o en revisión."
    ],
    "database": ["Se agregó la columna IdCuentaPago a la tabla de gastos, esto para poder rastrear los posibles gastos generados por una cuenta pagada."],
    "services": []
}