{
    "desktop": [
        "Ahora se permite activar Tarjetas V no vendidas en el hotel sin generar un ingreso en el corte en donde se realize la acción.",
        "Se revirtió el siguiente cambio de la versión 0.1.3.3: Ahora es obligatoria la captura de las incidencias de turno por parte del gerente operativo antes de poder cerrar el turno en curso.",
        "Se implementó un nuevo mecanismo para la eliminación de artículos ya guardados en una orden de compra, liberando así la opción de guardar artículos con cantidad surtida en cero.",
        "Se actualizó el módulo de sincronización con el sitio de requisiciones para que no mande como activos los artículos compuestos, evitando así que se puedan generar requisiciones con ellos.",
        "Se actualizó el reporte contable en el sistema de escritorio para que solamente contabilice en los ingresos las reservaciones consumidas en lugar de los anticipos válidos.",
        "Se detectó y reparó un error que hacía que un artículo y sus presentaciones tuviesen el mismo uuid, que es un identificador único necesario para poder sincronizar con el sitio de requisiciones, por lo que los artículos con presentaciones no se estaban sincronizando."
    ],
    "database": [
        "Se agregó la columna Sincronizar la tabla de tipos de artículos, esto con la finalidad de poder indicarle al sistema que los artículos compuestos no se deben mandar al sitio de requisiciones como activos.",
        "Se actualizó la vista VW_ZCTProductos usada en el módulo de sincronización con el sitio de requisiciones para soportar la nueva columna."
    ],
    "services": []
}