{
    "desktop": [
        "Se actualizó la ventana de proveedores, el campo Nombre pasa a ser Razón social, se agrega el campo Nombre comercial (obligatorio), Estado y Ciudad pasan a ser texto libre, se agrega el campo Nombre de contacto (obligatorio), Numero exterior pasa a ser obligatorio y Número interior opcional. Se quitan Número de pagos y Frecuencia de pagos.", 
        "Se corrigió el mensaje de error que sale al intentar eliminar un proveedor vinculado a órdenes de compra.", 
        "Se modificó el campo Teléfono en la ventana de proveedores para que solamente acepte dígitos."
    ],
    "database": ["Se agregan las columnas Contacto y NombreComercial a la tabla dbo.ZctCatProv (tabla de proveedores)."]
}