{
    "desktop": [
        "Se ajustó la aplicación para que el sistema de reservaciones no reembolse dinero cuando la sumatoria de los detalles de una reservación disminuyan por una modificación.",
        "Se agregó un renglón en el ticket de reservaciones para justificar el valor de ese dinero no reembolsado al momento de consumir la reservación.",
        "Se realizó una mejora en la consulta que actualiza el panel de habitaciones de la ventana principal del hotel.",
        "Corrección de un bug de la versión 0.1.3.6 que no permitía finalizar pagos pendientes de habitación."
    ],
    "database": [
        "Se agregó una tabla para almacenar las variaciones de los montos no reembolsados de las reservaciones, esto con la finalidad de que los cálculos entre detalles y pagos coincidan y también para llevar un historial de esas variaciones de precio.",
        "Se agregó una tabla para almacenar el ajuste de reservaciones de las ventas de habitación cuando el acceso es por medio de una reservación que posee montos no reembolsables.",
        "Se agregó un campo que acepta null en la tabla de cortes de turno que servirá para almacenar los ajustes de reservaciones."
],
    "services": ["Se actualizaron los servicios web para poder enviar el monto no reembolsado (ajuste de reservaciones) al sitio web."]
}