{
    "desktop": [
        "Candado Minutos Venta Permite la venta de habitaciones en minutos configurables",
		"Permiso: AsignarHabitaciones."
    ],
    "database": 
    [
    ],
    "services": 
    [
    ]
}