{
    "desktop": [
        "Se retira la opción \"Todos\" en el selector de categorías de un inventario y se agrega una validación para seleccionar una obligatoriamente.",
        "Se agregó una validación que revisa si existen artículos que no son de tipo compuesto que coincidan con los datos seleccionados para generar mi inventario (almacén, categoría, subcategoría y tipo de inventario).",
        "A partir de ahora la consulta de inventarios cargará la categoría y subcategoría de los que se generen luego del cambio.",
        "Se modificó el comportamiento del sistema a la hora de descontar los ingredientes de una receta, ahora esos ingredientes se descuentan del almacén que tienen por defecto."
    ],
    "database": [
        "Se agregaron las relaciones entre el inventario, la categoría y la subcategoría.",
        "Se modificó el procedimiento almacenado que guarda el encabezado de un inventario para que pueda almacenar el valor de los nuevos campos.",
        "Se agregó una nueva columna llamada Inventariable en la tabla de tipos de artículos y se marcan como inventariables todos los tipos a excepción del artículo compuesto."
],
    "services": []
}