{
    "desktop": [
        "Se agregó una nueva pantalla para gestionar los artículos, desde ella se van a poder agregar nuevos, editar los existentes y gestionar las recetas (esto último requiere el permiso para consultar las recetas).", 
        "Se actualizó la ventana de edición de artículos para soportar múltiples presentaciones con sus respectivas conversiones.", 
        "Se creó una nueva ventana de recetas que funciona con cantidades en lugar de proporciones."
    ],
    "database": [
        "Se agregó una tabla para almacenar las conversiones entre un artículo y sus presentaciones.",
        "Se modificó la tabla de artículos para poder indicar que un artículo sirve de presentación para otro.",
        "Se agregaron tablas para dar seguimiento a las conversiones al momento de comandar.",
        "Se agregó la opción de marcar un artículo para que no pueda se comandado independientemente de la categoría y subcategoría a la que pertenezca (útil para presentaciones de artículos que sí pueden ser comandados)."
    ]
}